<?xml version="1.0" encoding="UTF-8"?>
<session version="1.0">
<refactoring comment="Rename type &apos;controllers.LoginController&apos; to &apos;AuthenticatedController&apos;&#x0A;- Original project: &apos;TransferApp&apos;&#x0A;- Original element: &apos;controllers.LoginController&apos;&#x0A;- Renamed element: &apos;controllers.AuthenticatedController&apos;&#x0A;- Update references to refactored element&#x0A;- Update textual occurrences in comments and strings" description="Rename type &apos;LoginController&apos;" flags="589830" id="org.eclipse.jdt.ui.rename.type" input="/src&lt;controllers{LoginController.java[LoginController" matchStrategy="1" name="AuthenticatedController" qualified="false" references="true" similarDeclarations="false" stamp="1517078270632" textual="false" version="1.0"/>
</session>